{
  "project_info": {
    "project_number": "1033315559988",
    "project_id": "examenam2",
    "storage_bucket": "examenam2.appspot.com"
  },
  "client": [
    {
      "client_info": {
        "mobilesdk_app_id": "1:1033315559988:android:38706f9231ddb84ad7b861",
        "android_client_info": {
          "package_name": "com.example.examenam2"
        }
      },
      "oauth_client": [
        {
          "client_id": "1033315559988-ojp7s50tlmkck0b995nrghsv5knjtdta.apps.googleusercontent.com",
          "client_type": 3
        }
      ],
      "api_key": [
        {
          "current_key": "AIzaSyCQkOOW90uUs4fHML4w_656XBQk_tAKy9k"
        }
      ],
      "services": {
        "appinvite_service": {
          "other_platform_oauth_client": [
            {
              "client_id": "1033315559988-ojp7s50tlmkck0b995nrghsv5knjtdta.apps.googleusercontent.com",
              "client_type": 3
            }
          ]
        }
      }
    }
  ],
  "configuration_version": "1"
}